…
## [1] 84

Getting Preferences

To make preference collection more user-friendy, I selected just levels of the country variable from vacation_data into a tibble and exported it as a txt file for excel.

countries <- levels(vacation_data$country)
as_tibble(countries)

## Warning: Calling `as_tibble()` on a vector is discouraged, because the behavior is likely to change in the future. Use `tibble::enframe(name = NULL)` instead.
## This warning is displayed once per session.

## # A tibble: 84 x 1
##    value                    
##    <chr>                    
##  1 " Albania"               
##  2 " Algeria"               
##  3 " Armenia"               
##  4 " Austria"               
##  5 " Azerbaijan"            
##  6 " Bahrain"               
##  7 " Bangladesh"            
##  8 " Belarus"               
##  9 " Belgium"               
## 10 " Bosnia And Herzegovina"
## # … with 74 more rows
…
